// Jest Snapshot v1, https://goo.gl/fbAQLP

exports[`MyPokemonList #render should render component MyPokemonList correctly when invoked 1`] = `<Styled(div) />`;

exports[`MyPokemonList #render should render component MyPokemonList with data correctly when invoked 1`] = `
.emotion-0 {
  padding: 30px;
}

@media (min-width: 500px) {
  .emotion-0 {
    display: -webkit-box;
    display: -webkit-flex;
    display: -ms-flexbox;
    display: flex;
    -webkit-flex-direction: row;
    -ms-flex-direction: row;
    flex-direction: row;
    -webkit-box-pack: center;
    -ms-flex-pack: center;
    -webkit-justify-content: center;
    justify-content: center;
    -webkit-align-items: center;
    -webkit-box-align: center;
    -ms-flex-align: center;
    align-items: center;
    -webkit-box-flex-wrap: wrap;
    -webkit-flex-wrap: wrap;
    -ms-flex-wrap: wrap;
    flex-wrap: wrap;
  }
}

.emotion-1 {
  display: -webkit-box;
  display: -webkit-flex;
  display: -ms-flexbox;
  display: flex;
  -webkit-flex-direction: column;
  -ms-flex-direction: column;
  flex-direction: column;
  -webkit-box-pack: center;
  -ms-flex-pack: center;
  -webkit-justify-content: center;
  justify-content: center;
  -webkit-align-items: center;
  -webkit-box-align: center;
  -ms-flex-align: center;
  align-items: center;
  margin: 15px 0;
  padding: 15px;
  font-family: 'Noto Sans JP',sans-serif;
  text-transform: capitalize;
  cursor: pointer;
}

@media (min-width: 320px) {
  .emotion-1 {
    width: 100%;
  }
}

@media (min-width: 500px) {
  .emotion-1 {
    width: 50%;
  }
}

@media (min-width: 768px) {
  .emotion-1 {
    width: 33.3%;
  }
}

@media (min-width: 1200px) {
  .emotion-1 {
    width: 20%;
  }
}

@media (min-width: 320px) {
  .emotion-2 {
    width: 180px;
    height: 200px;
    background: #fafafa;
    text-align: center;
    position: relative;
    border-radius: 20px;
    padding: 10px 0;
  }

  .emotion-2 img {
    width: 120px;
  }
}

.emotion-3 {
  width: 40px;
  height: 40px;
  border-radius: 100px;
  position: absolute;
  font-size: 18px;
  background: #FFF;
  text-align: center;
  color: #555;
  -webkit-text-decoration: none;
  text-decoration: none;
  font-weight: 500;
  padding: 5px 0;
  color: red;
  top: -15px;
  left: -15px;
  box-shadow: 0px 1px 3px rgba(0,0,0,0.3);
  cursor: pointer;
}

.emotion-4 {
  color: #555;
  -webkit-text-decoration: none;
  text-decoration: none;
  font-weight: 500;
  padding: 0px 0;
}

<MyPokemonList>
  <Styled(div)>
    <div
      className="emotion-0"
    >
      <PokemonCharacter
        character={
          Object {
            "image": "img",
            "name": "Bulbasaur",
            "pokemonName": "Test",
            "sprites": Object {
              "front_default": "img",
            },
          }
        }
        key="Bulbasaur"
        removeable={true}
      >
        <Styled(div)
          onClick={[Function]}
        >
          <div
            className="emotion-1"
            onClick={[Function]}
          >
            <Styled(div)>
              <div
                className="emotion-2"
              >
                <Styled(div)
                  className="delete-pokemon"
                  onClick={[Function]}
                >
                  <div
                    className="delete-pokemon emotion-3"
                    onClick={[Function]}
                  >
                    X
                  </div>
                </Styled(div)>
                <img
                  alt=""
                  src="img"
                />
                <Styled(h3)>
                  <h3
                    className="emotion-4"
                  >
                    Test
                  </h3>
                </Styled(h3)>
              </div>
            </Styled(div)>
          </div>
        </Styled(div)>
      </PokemonCharacter>
    </div>
  </Styled(div)>
</MyPokemonList>
`;
